{
  "installOptions": {
    "polyfillNode": true
  },
  "mount": {
    "static": "/",
    "src": "/_dist_"
  },
  "plugins": [
    [
      "@snowpack/plugin-optimize",
      {}
    ]
  ],
  "devOptions": {
    "secure": true
  }
}
